{
    "filter_error": [],
    "total_rows": 7,
    "error": null,
    "page_data": [{
        "date": "20160325",
        "name": "<input type='checkbox' name='0'>&nbsp;testFile",
        "index": 0,
        "id": "6E356DC34311DAD17795E169410475DA807838BB972B4280B51FD029291F214F5FE751E1E9BDD8B6A1D53ABA72D6306AC6A4A5227FE29C11F2F65E9DE33E9323",
        "type": "json",
        "user": "Lee"
    }, {
        "date": "20160325",
        "name": "高自考网络助学学习方法与考核要求",
        "index": 1,
        "id": "225C2177F7C1421F11A17E123D14FBAB65A0E380C9A449E1A933ACC1B05CB3815721AA740058C4813622E6ED9EB46FE911E0FFDEDD19A9E77BCA1358EC0BD1D6",
        "type": "pdf",
        "user": "Lee"
    }, {
        "date": "20160325",
        "name": "天津会展管理实践课考核要求",
        "index": 2,
        "id": "647563B9390CC63819B1712A2BE4C87A289B9AD8CBAC4A0FBDF32851003C038AD8C5383427CA880B0ED0898C87C5DDB6BAD2DC6816E559DFA894B197382A9E17",
        "type": "rar",
        "user": "Lee"
    }, {
        "date": "Fri Apr 01 10:11:28 CST 2016",
        "name": "lib.zip",
        "index": 3,
        "id": "336B32882F0B6424B5948239ADE41A6BB310A9C6965F4F57B34A37E38BD022EDA61445B78E50268C04D6016450E4262A899B702162AB2C8B232E8F1C476DB885",
        "type": "application\/octet-stream",
        "user": "Lee"
    }, {
        "date": "Fri Apr 01 10:16:02 CST 2016",
        "name": "1604复习资料.rar",
        "index": 4,
        "id": "62CE61B75E3BC21E7264B5554784560930016AC0137849EC8A39657F3F3901D04A7A9819290746A44E4B2B69F4B53750331F886C18DAB2F65278966350B23774",
        "type": "application\/octet-stream",
        "user": "Lee"
    }, {
        "date": "Tue Apr 05 20:35:47 CST 2016",
        "name": "天津自考2016年4月份考试通知单.pdf",
        "index": 5,
        "id": "A872A7FEAA584E7D0A23AB47FC04FBDB5766B8BD9F4E4BCD90874003D5D539582D59F26B10EEFC9A32E479F562B76A8666FEE714ED9FE1CD17C807CD779406FC",
        "type": "application\/pdf",
        "user": "Lee"
    }, {
        "date": "Thu Apr 07 22:04:17 CST 2016",
        "name": "1604考试时间.jpg",
        "index": 6,
        "id": "E207E138E749C21E2F4B94507B84941A137458A89A934354931F06904E28BF14B0873D9FAFFC235A6CB269709EF10CC3FDD7333D9CA3AA68A1FC18165D75D454",
        "type": "image\/jpeg",
        "user": "Lee"
    }],
    "debug_message": []
}